%YAML 1.1
%TAG !u! tag:unity3d.com,2011:
--- !u!1045 &1
EditorBuildSettings:
  m_ObjectHideFlags: 0
  serializedVersion: 2
  m_Scenes:
  - enabled: 0
    path: Assets/SampleScenes/Scenes/NetworLobby.unity
  - enabled: 0
    path: Assets/SampleScenes/Scenes/NetworkSpaceship.unity
  - enabled: 1
    path: Assets/Scenes/start.unity
  - enabled: 0
    path: Assets/Scenes/GameFPS.unity
  - enabled: 0
    path: Assets/Scenes/Game.unity
  - enabled: 0
    path: Assets/Demos/testScene/testScene.unity
  - enabled: 1
    path: Assets/Scenes/FourCar.unity
  - enabled: 1
    path: Assets/Scenes/scene1/Scenes/TrackScene01.unity
